picoversat/simulation/icarus/xtop.vcd
$date
	Mon Oct 21 16:12:19 2019
$end
$version
	Icarus Verilog
$end
$timescale
	1ps
$end
$scope module xtop_tb $end
$var wire 32 ! r0 [31:0] $end
$var wire 32 " r1 [31:0] $end
$var wire 32 # r10 [31:0] $end
$var wire 32 $ r11 [31:0] $end
$var wire 32 % r12 [31:0] $end
$var wire 32 & r13 [31:0] $end
$var wire 32 ' r14 [31:0] $end
$var wire 32 ( r15 [31:0] $end
$var wire 32 ) r2 [31:0] $end
$var wire 32 * r3 [31:0] $end
$var wire 32 + r4 [31:0] $end
$var wire 32 , r5 [31:0] $end
$var wire 32 - r6 [31:0] $end
$var wire 32 . r7 [31:0] $end
$var wire 32 / r8 [31:0] $end
$var wire 32 0 r9 [31:0] $end
$var wire 1 1 trap $end
$var wire 1 2 par_we $end
$var wire 32 3 par_out [31:0] $end
$var wire 9 4 par_addr [8:0] $end
$var reg 1 5 clk $end
$var reg 32 6 par_in [31:0] $end
$var reg 1 7 rst $end
$var integer 32 8 k [31:0] $end
$var integer 32 9 start_time [31:0] $end
$scope module uut $end
$var wire 1 5 clk $end
$var wire 32 : ext_data_to_rd [31:0] $end
$var wire 32 ; par_in [31:0] $end
$var wire 32 < par_out [31:0] $end
$var wire 1 = par_re $end
$var wire 1 2 par_we $end
$var wire 1 7 rst $end
$var wire 1 1 trap $end
$var wire 1 > regf_sel $end
$var wire 32 ? regf_data_to_rd [31:0] $end
$var wire 9 @ pc [8:0] $end
$var wire 9 A par_addr [8:0] $end
$var wire 1 B mem_sel $end
$var wire 32 C mem_data_to_rd [31:0] $end
$var wire 32 D instruction [31:0] $end
$var wire 1 E ext_sel $end
$var wire 1 F data_we $end
$var wire 32 G data_to_wr [31:0] $end
$var wire 32 H data_to_rd [31:0] $end
$var wire 1 I data_sel $end
$var wire 10 J data_addr [9:0] $end
$var wire 1 K cprt_sel $end
$scope module addr_decoder $end
$var wire 32 L ext_data_to_rd [31:0] $end
$var wire 1 I sel $end
$var wire 32 M regf_data_to_rd [31:0] $end
$var wire 32 N mem_data_to_rd [31:0] $end
$var wire 10 O addr [9:0] $end
$var reg 1 K cprt_sel $end
$var reg 32 P data_to_rd [31:0] $end
$var reg 1 E ext_sel $end
$var reg 1 B mem_sel $end
$var reg 1 > regf_sel $end
$var reg 1 1 trap_sel $end
$upscope $end
$scope module controller $end
$var wire 1 Q alu_arith_ops $end
$var wire 1 R alu_imm_ops $end
$var wire 1 S alu_logic_ops $end
$var wire 1 T alu_mem_ops $end
$var wire 1 U alu_ops $end
$var wire 32 V and_res [31:0] $end
$var wire 1 W branch_ops $end
$var wire 1 5 clk $end
$var wire 1 X imm_ops $end
$var wire 1 Y load_imm_ops $end
$var wire 1 Z load_mem_ops $end
$var wire 1 [ load_ops $end
$var wire 32 \ mem_data_from [31:0] $end
$var wire 32 ] mem_data_to [31:0] $end
$var wire 1 I mem_sel $end
$var wire 1 F mem_we $end
$var wire 1 7 rst $end
$var wire 1 ^ store_mem_ops $end
$var wire 32 _ xor_res [31:0] $end
$var wire 4 ` opcode [3:0] $end
$var wire 32 a instruction [31:0] $end
$var wire 32 b imm [31:0] $end
$var reg 32 c adder_res [31:0] $end
$var reg 1 d alu_carry $end
$var reg 1 e alu_negative $end
$var reg 1 f alu_overflow $end
$var reg 32 g alu_result [31:0] $end
$var reg 1 h carry_res_n $end
$var reg 32 i carry_res_n_1 [31:0] $end
$var reg 10 j mem_addr [9:0] $end
$var reg 32 k operand [31:0] $end
$var reg 9 l pc [8:0] $end
$var reg 32 m regA [31:0] $end
$var reg 32 n regB [31:0] $end
$var reg 3 o regC [2:0] $end
$upscope $end
$scope module cprint $end
$var wire 1 5 clk $end
$var wire 8 p data_in [7:0] $end
$var wire 1 q sel $end
$upscope $end
$scope module ram $end
$var wire 1 5 clk $end
$var wire 9 r data_addr [8:0] $end
$var wire 9 s data_addr_int [8:0] $end
$var wire 1 t data_en_int $end
$var wire 32 u data_in [31:0] $end
$var wire 32 v data_in_int [31:0] $end
$var wire 32 w data_out [31:0] $end
$var wire 1 B data_sel $end
$var wire 1 F data_we $end
$var wire 1 x data_we_int $end
$var wire 1 y instr_en $end
$var wire 9 z pc [8:0] $end
$var reg 32 { data_out_int [31:0] $end
$var reg 32 | instruction [31:0] $end
$upscope $end
$scope module regf $end
$var wire 4 } addr [3:0] $end
$var wire 1 5 clk $end
$var wire 32 ~ data_in [31:0] $end
$var wire 1 > sel $end
$var wire 1 F we $end
$var wire 32 !" data_out [31:0] $end
$upscope $end
$upscope $end
$upscope $end
$enddefinitions $end
#0
$dumpvars
bx !"
bx ~
bx }
bx |
bx {
bx z
1y
xx
bx w
bx v
bx u
xt
bx s
bx r
xq
bx p
bx o
bx n
bx m
bx l
bx k
bx j
bx i
xh
bx g
xf
xe
xd
bx c
bx b
bx a
bx `
bx _
x^
bx ]
bx \
x[
xZ
xY
xX
xW
bx V
xU
xT
xS
xR
xQ
bx P
bx O
bx N
bx M
bx L
xK
bx J
xI
bx H
bx G
xF
xE
bx D
bx C
xB
bx A
bx @
bx ?
x>
x=
bx <
bx ;
bx :
bx 9
bx 8
07
bx 6
15
bx 4
bx 3
x2
x1
bx 0
bx /
bx .
bx -
bx ,
bx +
bx *
bx )
bx (
bx '
bx &
bx %
bx $
bx #
bx "
bx !
$end
#5000
05
#10000
15
#11000
0f
0e
0d
b0 g
b0 c
0h
b0 i
b0 _
b0 V
b0 p
b0 k
b0 @
b0 l
b0 z
b0 v
b0 3
b0 <
b0 G
b0 ]
b0 u
b0 ~
b0 m
b0 n
b0 o
17
#15000
05
#20000
0I
0=
b0 ?
b0 M
b0 !"
b0 H
b0 P
b0 \
b1 c
b1 i
b1 _
b1 }
b1 s
b1 r
b1 4
b1 A
01
0E
0K
0>
0t
0B
b1 k
b1 J
b1 O
b1 j
0T
0U
0q
02
1[
1X
b1 b
0W
0S
0Q
0R
0x
0F
0^
0Z
1Y
b110 `
b1100000000000000000000000000001 D
b1100000000000000000000000000001 a
b1100000000000000000000000000001 |
15
#21000
b10000 8
b10101 9
07
#25000
05
#30000
b10 c
b10 i
b0 _
b1 V
b1 p
b1 @
b1 l
b1 z
b1 v
b1 3
b1 <
b1 G
b1 ]
b1 u
b1 ~
b1 m
15
#35000
05
#40000
bx H
bx P
bx \
bx ?
bx M
bx !"
1>
1I
b1 c
b1 i
b1 _
b0 V
b0 }
b0 s
b0 r
b0 4
b0 A
b0 k
b1000000000 J
b1000000000 O
b1000000000 j
0[
0X
b1000000000 b
1x
1F
1^
0Y
b1001 `
b10 @
b10 l
b10 z
b10010000000000000000001000000000 D
b10010000000000000000001000000000 a
b10010000000000000000001000000000 |
15
#45000
05
#50000
0I
b0 c
1h
b10000000000000000000000000000000 i
b11111111111111111111111111111110 _
b1 V
b1111 }
b111111111 s
b111111111 r
b111111111 4
b111111111 A
01
0>
b11111111111111111111111111111111 k
b1111111111 J
b1111111111 O
b1111111111 j
1[
1X
b0 H
b0 P
b0 \
b11111111111111111111111111111111 b
0x
0F
0^
1Y
b0 ?
b0 M
b0 !"
b110 `
b11 @
b11 l
b11 z
b1 !
b1101111111111111111111111111111 D
b1101111111111111111111111111111 a
b1101111111111111111111111111111 |
15
#55000
05
#60000
1h
1e
1d
b11111111111111111111111111111110 g
1U
b11111111111111111111111111111111 k
1Q
0[
1R
0Y
b11111111111111111111111111111110 c
b11111111111111111111111111111110 i
b0 _
b11111111111111111111111111111111 V
b11111111 p
b0 `
b11111111111111111111111111111111 v
b11111111111111111111111111111111 3
b11111111111111111111111111111111 <
b11111111111111111111111111111111 G
b11111111111111111111111111111111 ]
b11111111111111111111111111111111 u
b11111111111111111111111111111111 ~
b11111111111111111111111111111111 m
b100 @
b100 l
b100 z
b1111111111111111111111111111 D
b1111111111111111111111111111 a
b1111111111111111111111111111 |
15
#65000
05
#70000
b1 }
b10001 s
b10001 r
b10001 4
b10001 A
0U
b1000010001 J
b1000010001 O
b1000010001 j
0T
0Q
0X
1[
b1000010001 b
0R
1Z
0e
0d
b0 g
b11 c
b10000000000000000000000000000011 i
b11111111111111111111111111111011 _
b100 V
b11111110 p
b101 k
b1000 `
b101 @
b101 l
b101 z
b11111111111111111111111111111110 v
b11111111111111111111111111111110 3
b11111111111111111111111111111110 <
b11111111111111111111111111111110 G
b11111111111111111111111111111110 ]
b11111111111111111111111111111110 u
b11111111111111111111111111111110 ~
b11111111111111111111111111111110 m
b101 o
b10000000000000000000001000010001 D
b10000000000000000000001000010001 a
b10000000000000000000001000010001 |
15
#75000
05
#80000
b1 H
b1 P
b1 \
b1 ?
b1 M
b1 !"
1>
1I
b0 }
b0 s
b0 r
b0 4
b0 A
1U
b1 k
b1000000000 J
b1000000000 O
b1000000000 j
1T
0[
b1000000000 b
1S
0Z
b1 g
b110 c
0h
b110 i
b100 _
b1 V
b101 p
b100 `
b101 v
b101 3
b101 <
b101 G
b101 ]
b101 u
b101 ~
b101 m
b110 @
b110 l
b110 z
b1000000000000000000001000000000 D
b1000000000000000000001000000000 a
b1000000000000000000001000000000 |
15
#85000
05
#90000
0I
b0 V
b0 H
b0 P
b0 \
b0 ?
b0 M
b0 !"
b1100 }
b1100 s
b1100 r
b1100 4
b1100 A
0t
0B
0>
1W
0U
b1100 J
b1100 O
b1100 j
0T
b1100 b
0S
b0 g
b1 c
b1 i
b1 _
b1 p
b0 k
b1110 `
b111 @
b111 l
b111 z
b1 v
b1 3
b1 <
b1 G
b1 ]
b1 u
b1 ~
b1 m
b0 o
b11100000000000000000000000001100 D
b11100000000000000000000000001100 a
b11100000000000000000000000001100 |
15
#95000
05
#100000
b11 }
b1100011 s
b1100011 r
b1100011 4
b1100011 A
0W
b1100011 k
b1100011 J
b1100011 O
b1100011 j
1[
1X
b1100011 b
1Y
b1100011 c
b1100011 i
b1100011 _
b0 p
b110 `
b0 v
b0 3
b0 <
b0 G
b0 ]
b0 u
b0 ~
b0 m
b1100 @
b1100 l
b1100 z
b1100000000000000000000001100011 D
b1100000000000000000000001100011 a
b1100000000000000000000001100011 |
15
#105000
05
#110000
b100 }
b100 s
b100 r
b100 4
b100 A
b100 k
b100 J
b100 O
b100 j
b100 b
b1100111 c
b1100111 i
b1100111 _
b0 V
b1100011 p
b1101 @
b1101 l
b1101 z
b1100011 v
b1100011 3
b1100011 <
b1100011 G
b1100011 ]
b1100011 u
b1100011 ~
b1100011 m
b1100000000000000000000000000100 D
b1100000000000000000000000000100 a
b1100000000000000000000000000100 |
15
#115000
05
#120000
b1 H
b1 P
b1 \
b1 ?
b1 M
b1 !"
1>
1I
b0 }
b0 s
b0 r
b0 4
b0 A
b0 k
b1000000000 J
b1000000000 O
b1000000000 j
0[
0X
b1000000000 b
1x
1F
1^
0Y
b100 c
b100 i
b100 _
b0 V
b100 p
b1001 `
b100 v
b100 3
b100 <
b100 G
b100 ]
b100 u
b100 ~
b100 m
b1110 @
b1110 l
b1110 z
b10010000000000000000001000000000 D
b10010000000000000000001000000000 a
b10010000000000000000001000000000 |
15
#125000
05
#130000
0I
b11 c
1h
b10000000000000000000000000000011 i
b11111111111111111111111111111011 _
b100 V
b1111 }
b111111111 s
b111111111 r
b111111111 4
b111111111 A
01
0>
b11111111111111111111111111111111 k
b1111111111 J
b1111111111 O
b1111111111 j
1[
1X
b0 H
b0 P
b0 \
b11111111111111111111111111111111 b
0x
0F
0^
1Y
b0 ?
b0 M
b0 !"
b110 `
b1111 @
b1111 l
b1111 z
b100 !
b1101111111111111111111111111111 D
b1101111111111111111111111111111 a
b1101111111111111111111111111111 |
15
#135000
05
#140000
1h
1e
1d
b11111111111111111111111111111110 g
1U
b11111111111111111111111111111111 k
1Q
0[
1R
0Y
b11111111111111111111111111111110 c
b11111111111111111111111111111110 i
b0 _
b11111111111111111111111111111111 V
b11111111 p
b0 `
b11111111111111111111111111111111 v
b11111111111111111111111111111111 3
b11111111111111111111111111111111 <
b11111111111111111111111111111111 G
b11111111111111111111111111111111 ]
b11111111111111111111111111111111 u
b11111111111111111111111111111111 ~
b11111111111111111111111111111111 m
b10000 @
b10000 l
b10000 z
b1111111111111111111111111111 D
b1111111111111111111111111111 a
b1111111111111111111111111111 |
15
#145000
05
#150000
b1 }
b10001 s
b10001 r
b10001 4
b10001 A
0U
b1000010001 J
b1000010001 O
b1000010001 j
0T
0Q
0X
1[
b1000010001 b
0R
1Z
0e
0d
b0 g
b11 c
b10000000000000000000000000000011 i
b11111111111111111111111111111011 _
b100 V
b11111110 p
b101 k
b1000 `
b10001 @
b10001 l
b10001 z
b11111111111111111111111111111110 v
b11111111111111111111111111111110 3
b11111111111111111111111111111110 <
b11111111111111111111111111111110 G
b11111111111111111111111111111110 ]
b11111111111111111111111111111110 u
b11111111111111111111111111111110 ~
b11111111111111111111111111111110 m
b101 o
b10000000000000000000001000010001 D
b10000000000000000000001000010001 a
b10000000000000000000001000010001 |
15
#155000
05
#160000
b100 H
b100 P
b100 \
b100 ?
b100 M
b100 !"
1>
1I
b0 }
b0 s
b0 r
b0 4
b0 A
1U
b100 k
b1000000000 J
b1000000000 O
b1000000000 j
1T
0[
b1000000000 b
1S
0Z
b100 g
b1001 c
0h
b1001 i
b1 _
b100 V
b101 p
b100 `
b101 v
b101 3
b101 <
b101 G
b101 ]
b101 u
b101 ~
b101 m
b10010 @
b10010 l
b10010 z
b1000000000000000000001000000000 D
b1000000000000000000001000000000 a
b1000000000000000000001000000000 |
15
#165000
05
#170000
0I
b0 V
b0 H
b0 P
b0 \
b0 ?
b0 M
b0 !"
b1000 }
b11000 s
b11000 r
b11000 4
b11000 A
0t
0B
0>
1W
0U
b11000 J
b11000 O
b11000 j
0T
b11000 b
0S
b0 g
b100 c
b100 i
b100 _
b100 p
b0 k
b1110 `
b10011 @
b10011 l
b10011 z
b100 v
b100 3
b100 <
b100 G
b100 ]
b100 u
b100 ~
b100 m
b0 o
b11100000000000000000000000011000 D
b11100000000000000000000000011000 a
b11100000000000000000000000011000 |
15
#175000
05
#180000
b10 V
b1110 }
b1101110 s
b1101110 r
b1101110 4
b1101110 A
0W
b1101110 k
b1101110 J
b1101110 O
b1101110 j
1[
1X
b1101110 b
1Y
b1110001 c
b1110001 i
b1101101 _
b11 p
b110 `
b11 v
b11 3
b11 <
b11 G
b11 ]
b11 u
b11 ~
b11 m
b11000 @
b11000 l
b11000 z
b1100000000000000000000001101110 D
b1100000000000000000000001101110 a
b1100000000000000000000001101110 |
15
#185000
05
#190000
b10 }
b10 s
b10 r
b10 4
b10 A
b10 k
b10 J
b10 O
b10 j
b10 b
b1110000 c
b1110000 i
b1101100 _
b10 V
b1101110 p
b11001 @
b11001 l
b11001 z
b1101110 v
b1101110 3
b1101110 <
b1101110 G
b1101110 ]
b1101110 u
b1101110 ~
b1101110 m
b1100000000000000000000000000010 D
b1100000000000000000000000000010 a
b1100000000000000000000000000010 |
15
#195000
05
#200000
b100 H
b100 P
b100 \
b100 ?
b100 M
b100 !"
1>
1I
b0 V
b0 }
b0 s
b0 r
b0 4
b0 A
b0 k
b1000000000 J
b1000000000 O
b1000000000 j
0[
0X
b1000000000 b
1x
1F
1^
0Y
b10 c
b10 i
b10 _
b10 p
b1001 `
b10 v
b10 3
b10 <
b10 G
b10 ]
b10 u
b10 ~
b10 m
b11010 @
b11010 l
b11010 z
b10010000000000000000001000000000 D
b10010000000000000000001000000000 a
b10010000000000000000001000000000 |
15
#205000
05
#210000
0I
b10000000000000001 c
b10000000000000001 i
b1111111111111101 _
b10 V
b1111 }
b111111111 s
b111111111 r
b111111111 4
b111111111 A
01
0>
b1111111111111111 k
b1111111111 J
b1111111111 O
b1111111111 j
1[
1X
b0 H
b0 P
b0 \
b1111111111111111 b
0x
0F
0^
1Y
b0 ?
b0 M
b0 !"
b110 `
b11011 @
b11011 l
b11011 z
b10 !
b1100000000000001111111111111111 D
b1100000000000001111111111111111 a
b1100000000000001111111111111111 |
15
#215000
05
#220000
b1111111111111111111111111111111 k
b1111111111111111111111111111111 b
b10000000000000001111111111111110 c
b10000000000000001111111111111110 i
b1111111111111110000000000000000 _
b1111111111111111 V
b11111111 p
b111 `
b1111111111111111 v
b1111111111111111 3
b1111111111111111 <
b1111111111111111 G
b1111111111111111 ]
b1111111111111111 u
b1111111111111111 ~
b1111111111111111 m
b11100 @
b11100 l
b11100 z
b1110000000000000111111111111111 D
b1110000000000000111111111111111 a
b1110000000000000111111111111111 |
15
#225000
05
#230000
bx H
bx P
bx \
bx ?
bx M
bx !"
1>
1I
b1 }
b1 s
b1 r
b1 4
b1 A
b0 k
b1000000001 J
b1000000001 O
b1000000001 j
0[
0X
b1000000001 b
1x
1F
1^
0Y
b1111111111111111111111111111111 c
b1111111111111111111111111111111 i
b1111111111111111111111111111111 _
b0 V
b1001 `
b11101 @
b11101 l
b11101 z
b1111111111111111111111111111111 v
b1111111111111111111111111111111 3
b1111111111111111111111111111111 <
b1111111111111111111111111111111 G
b1111111111111111111111111111111 ]
b1111111111111111111111111111111 u
b1111111111111111111111111111111 ~
b1111111111111111111111111111111 m
b10010000000000000000001000000001 D
b10010000000000000000001000000001 a
b10010000000000000000001000000001 |
15
#235000
05
#240000
1>
1e
1f
b11111111111111111111111111111110 c
b11111111111111111111111111111110 i
b0 _
b1111111111111111111111111111111 V
1I
1T
b1111111111111111111111111111111 k
1U
b11111111111111111111111111111110 g
1Q
0x
0F
0^
b1111111111111111111111111111111 H
b1111111111111111111111111111111 P
b1111111111111111111111111111111 \
b1 `
b1111111111111111111111111111111 ?
b1111111111111111111111111111111 M
b1111111111111111111111111111111 !"
b11110 @
b11110 l
b11110 z
b10000000000000000001000000001 D
b10000000000000000001000000001 a
b10000000000000000001000000001 |
b1111111111111111111111111111111 "
15
#245000
05
#250000
b0 H
b0 P
b0 \
b0 ?
b0 M
b0 !"
0T
0I
b10001 s
b10001 r
b10001 4
b10001 A
01
0>
0U
b1000010001 J
b1000010001 O
b1000010001 j
0Q
1[
b1000010001 b
1Z
0d
0f
0e
b0 g
b100 c
1h
b10000000000000000000000000000100 i
b11111111111111111111111111111000 _
b110 V
b11111110 p
b110 k
b1000 `
b11111 @
b11111 l
b11111 z
b11111111111111111111111111111110 v
b11111111111111111111111111111110 3
b11111111111111111111111111111110 <
b11111111111111111111111111111110 G
b11111111111111111111111111111110 ]
b11111111111111111111111111111110 u
b11111111111111111111111111111110 ~
b11111111111111111111111111111110 m
b110 o
b10000000000000000000001000010001 D
b10000000000000000000001000010001 a
b10000000000000000000001000010001 |
15
#255000
05
#260000
b10 H
b10 P
b10 \
b10 ?
b10 M
b10 !"
1>
b10 V
1I
b0 }
b0 s
b0 r
b0 4
b0 A
1U
b10 k
b1000000000 J
b1000000000 O
b1000000000 j
1T
0[
b1000000000 b
1S
0Z
b10 g
b1000 c
0h
b1000 i
b100 _
b110 p
b100 `
b110 v
b110 3
b110 <
b110 G
b110 ]
b110 u
b110 ~
b110 m
b100000 @
b100000 l
b100000 z
b1000000000000000000001000000000 D
b1000000000000000000001000000000 a
b1000000000000000000001000000000 |
15
#265000
05
#270000
0I
b0 V
b0 H
b0 P
b0 \
b0 ?
b0 M
b0 !"
b110 }
b100110 s
b100110 r
b100110 4
b100110 A
0t
0B
0>
1W
0U
b100110 J
b100110 O
b100110 j
0T
b100110 b
0S
b0 g
b10 c
b10 i
b10 _
b10 p
b0 k
b1110 `
b100001 @
b100001 l
b100001 z
b10 v
b10 3
b10 <
b10 G
b10 ]
b10 u
b10 ~
b10 m
b0 o
b11100000000000000000000000100110 D
b11100000000000000000000000100110 a
b11100000000000000000000000100110 |
15
#275000
05
#280000
b1 V
b1111 }
b1101111 s
b1101111 r
b1101111 4
b1101111 A
0W
b1101111 k
b1101111 J
b1101111 O
b1101111 j
1[
1X
b1101111 b
1Y
b1110000 c
b1110000 i
b1101110 _
b1 p
b110 `
b1 v
b1 3
b1 <
b1 G
b1 ]
b1 u
b1 ~
b1 m
b100110 @
b100110 l
b100110 z
b1100000000000000000000001101111 D
b1100000000000000000000001101111 a
b1100000000000000000000001101111 |
15
#285000
05
#290000
b1111 s
b1111 r
b1111 4
b1111 A
b1111 k
b1111 J
b1111 O
b1111 j
b1111 b
b1111110 c
b1111110 i
b1100000 _
b1111 V
b1101111 p
b100111 @
b100111 l
b100111 z
b1101111 v
b1101111 3
b1101111 <
b1101111 G
b1101111 ]
b1101111 u
b1101111 ~
b1101111 m
b1100000000000000000000000001111 D
b1100000000000000000000000001111 a
b1100000000000000000000000001111 |
15
#295000
05
#300000
b1111111111111111111111111111111 H
b1111111111111111111111111111111 P
b1111111111111111111111111111111 \
b1111111111111111111111111111111 ?
b1111111111111111111111111111111 M
b1111111111111111111111111111111 !"
1>
1I
b0 V
b1 }
b1 s
b1 r
b1 4
b1 A
b0 k
b1000000001 J
b1000000001 O
b1000000001 j
0[
0X
b1000000001 b
1x
1F
1^
0Y
b1111 c
b1111 i
b1111 _
b1111 p
b1001 `
b1111 v
b1111 3
b1111 <
b1111 G
b1111 ]
b1111 u
b1111 ~
b1111 m
b101000 @
b101000 l
b101000 z
b10010000000000000000001000000001 D
b10010000000000000000001000000001 a
b10010000000000000000001000000001 |
15
#305000
05
#310000
0I
b1000011 c
b1000011 i
b111011 _
b100 V
b100 }
b110100 s
b110100 r
b110100 4
b110100 A
0t
0B
0>
b110100 k
b110100 J
b110100 O
b110100 j
1[
1X
b0 H
b0 P
b0 \
b110100 b
0x
0F
0^
1Y
b0 ?
b0 M
b0 !"
b110 `
b101001 @
b101001 l
b101001 z
b1111 "
b1100000000000000000000000110100 D
b1100000000000000000000000110100 a
b1100000000000000000000000110100 |
15
#315000
05
#320000
b0 }
b10000 s
b10000 r
b10000 4
b10000 A
b0 k
b1000010000 J
b1000010000 O
b1000010000 j
0[
0X
b1000010000 b
1x
1F
1^
0Y
b110100 c
b110100 i
b110100 _
b0 V
b110100 p
b1001 `
b110100 v
b110100 3
b110100 <
b110100 G
b110100 ]
b110100 u
b110100 ~
b110100 m
b101010 @
b101010 l
b101010 z
b10010000000000000000001000010000 D
b10010000000000000000001000010000 a
b10010000000000000000001000010000 |
15
#325000
05
#330000
bx c
xh
bx i
bx _
b0xx0x00 V
bx k
bx H
bx P
bx \
1t
1B
1I
1[
b100 }
b110100 s
b110100 r
b110100 4
b110100 A
b0 b
0x
0F
0^
1Z
b110100 J
b110100 O
b110100 j
b1010 `
b101011 @
b101011 l
b101011 z
b110100 n
b10100000000000000000000000000000 D
b10100000000000000000000000000000 a
b10100000000000000000000000000000 |
15
#335000
05
#340000
b1010 k
b0x0x0 V
bx p
b1010 H
b1010 P
b1010 \
bx v
bx 3
bx <
bx G
bx ]
bx u
bx ~
bx m
b101100 @
b101100 l
b101100 z
b1010 C
b1010 N
b1010 w
b1010 {
15
#345000
05
#350000
1q
1K
b0 H
b0 P
b0 \
0[
b1000 }
b1011000 s
b1011000 r
b1011000 4
b1011000 A
0t
0B
b0 k
b1001011000 b
1x
1F
1^
0Z
b1001011000 J
b1001011000 O
b1001011000 j
b1010 c
0h
b1010 i
b1010 _
b0 V
b1010 p
b1001 `
b101101 @
b101101 l
b101101 z
b1010 v
b1010 3
b1010 <
b1010 G
b1010 ]
b1010 u
b1010 ~
b1010 m
b10010000000000000000001001011000 D
b10010000000000000000001001011000 a
b10010000000000000000001001011000 |
15
#355000
05
#360000
0I
b111110 c
b111110 i
b111110 _
b0 }
b10000 s
b10000 r
b10000 4
b10000 A
01
0K
b110100 k
b1000010000 J
b1000010000 O
b1000010000 j
0q
1[
b1000010000 b
0x
0F
0^
1Z
b1000 `
b101110 @
b101110 l
b101110 z
b10000000000000000000001000010000 D
b10000000000000000000001000010000 a
b10000000000000000000001000010000 |
15
#365000
05
#370000
b1 }
b1 s
b1 r
b1 4
b1 A
b110101 g
1U
b1 k
b1 J
b1 O
b1 j
1Q
1X
0[
b1 b
1R
0Z
b110101 c
b110101 i
b110101 _
b0 V
b110100 p
b0 `
b101111 @
b101111 l
b101111 z
b110100 v
b110100 3
b110100 <
b110100 G
b110100 ]
b110100 u
b110100 ~
b110100 m
b1 D
b1 a
b1 |
15
#375000
05
#380000
b0 }
b10000 s
b10000 r
b10000 4
b10000 A
0U
b0 k
b1000010000 J
b1000010000 O
b1000010000 j
0T
0Q
0X
b1000010000 b
0R
1x
1F
1^
b0 g
b110101 c
b110101 i
b110101 _
b0 V
b110101 p
b1001 `
b110101 v
b110101 3
b110101 <
b110101 G
b110101 ]
b110101 u
b110101 ~
b110101 m
b110000 @
b110000 l
b110000 z
b10010000000000000000001000010000 D
b10010000000000000000001000010000 a
b10010000000000000000001000010000 |
15
#385000
05
#390000
b1000100 c
b1000100 i
b111010 _
b101 V
b1111 k
b1111 H
b1111 P
b1111 \
b1111 ?
b1111 M
b1111 !"
1>
1I
b1 }
b1 s
b1 r
b1 4
b1 A
b1000000001 J
b1000000001 O
b1000000001 j
1[
b1000000001 b
0x
0F
0^
1Z
b1000 `
b110001 @
b110001 l
b110001 z
b110101 n
b10000000000000000000001000000001 D
b10000000000000000000001000000001 a
b10000000000000000000001000000001 |
15
#395000
05
#400000
0I
b0 H
b0 P
b0 \
b0 ?
b0 M
b0 !"
b1010 }
b101010 s
b101010 r
b101010 4
b101010 A
0t
0B
0>
1W
b0 k
b101010 J
b101010 O
b101010 j
0[
b101010 b
0Z
b1111 c
b1111 i
b1111 _
b0 V
b1111 p
b1110 `
b1111 v
b1111 3
b1111 <
b1111 G
b1111 ]
b1111 u
b1111 ~
b1111 m
b110010 @
b110010 l
b110010 z
b11100000000000000000000000101010 D
b11100000000000000000000000101010 a
b11100000000000000000000000101010 |
15
#405000
05
#410000
b1111 H
b1111 P
b1111 \
b1111 ?
b1111 M
b1111 !"
1>
1I
b1 }
b1 s
b1 r
b1 4
b1 A
0W
b1000000001 J
b1000000001 O
b1000000001 j
b1000000001 b
1x
1F
1^
b1110 c
b1110 i
b1110 _
b1110 p
b1001 `
b101010 @
b101010 l
b101010 z
b1110 v
b1110 3
b1110 <
b1110 G
b1110 ]
b1110 u
b1110 ~
b1110 m
b10010000000000000000001000000001 D
b10010000000000000000001000000001 a
b10010000000000000000001000000001 |
15
#415000
05
#420000
b11000 c
b11000 i
b100 _
b1010 V
b1010 k
1[
b101 }
b110101 s
b110101 r
b110101 4
b110101 A
1t
1B
0>
b0 b
0x
0F
0^
1Z
b110101 J
b110101 O
b110101 j
b1010 H
b1010 P
b1010 \
b1010 `
b0 ?
b0 M
b0 !"
b101011 @
b101011 l
b101011 z
b10100000000000000000000000000000 D
b10100000000000000000000000000000 a
b10100000000000000000000000000000 |
b1110 "
15
#425000
05
#430000
b1000 V
b1001000 k
b1010010 c
b1010010 i
b1000010 _
b1010 p
b1001000 H
b1001000 P
b1001000 \
b101100 @
b101100 l
b101100 z
b1010 v
b1010 3
b1010 <
b1010 G
b1010 ]
b1010 u
b1010 ~
b1010 m
b1001000 C
b1001000 N
b1001000 w
b1001000 {
15
#435000
05
#440000
1q
1K
b0 H
b0 P
b0 \
0[
b1000 }
b1011000 s
b1011000 r
b1011000 4
b1011000 A
0t
0B
b0 k
b1001011000 b
1x
1F
1^
0Z
b1001011000 J
b1001011000 O
b1001011000 j
b1001000 c
b1001000 i
b1001000 _
b0 V
b1001000 p
b1001 `
b1001000 v
b1001000 3
b1001000 <
b1001000 G
b1001000 ]
b1001000 u
b1001000 ~
b1001000 m
b101101 @
b101101 l
b101101 z
b10010000000000000000001001011000 D
b10010000000000000000001001011000 a
b10010000000000000000001001011000 |
15
#445000
05
#450000
0I
b1111101 c
b1111101 i
b1111101 _
b0 }
b10000 s
b10000 r
b10000 4
b10000 A
01
0K
b110101 k
b1000010000 J
b1000010000 O
b1000010000 j
0q
1[
b1000010000 b
0x
0F
0^
1Z
b1000 `
b101110 @
b101110 l
b101110 z
b10000000000000000000001000010000 D
b10000000000000000000001000010000 a
b10000000000000000000001000010000 |
15
#455000
05
#460000
b1 }
b1 s
b1 r
b1 4
b1 A
b110110 g
1U
b1 k
b1 J
b1 O
b1 j
1Q
1X
0[
b1 b
1R
0Z
b110110 c
b110110 i
b110100 _
b1 V
b110101 p
b0 `
b110101 v
b110101 3
b110101 <
b110101 G
b110101 ]
b110101 u
b110101 ~
b110101 m
b101111 @
b101111 l
b101111 z
b1 D
b1 a
b1 |
15
#465000
05
#470000
b0 }
b10000 s
b10000 r
b10000 4
b10000 A
0U
b0 k
b1000010000 J
b1000010000 O
b1000010000 j
0T
0Q
0X
b1000010000 b
0R
1x
1F
1^
b0 g
b110110 c
b110110 i
b110110 _
b0 V
b110110 p
b1001 `
b110000 @
b110000 l
b110000 z
b110110 v
b110110 3
b110110 <
b110110 G
b110110 ]
b110110 u
b110110 ~
b110110 m
b10010000000000000000001000010000 D
b10010000000000000000001000010000 a
b10010000000000000000001000010000 |
15
#475000
05
#480000
b1000100 c
b1000100 i
b111000 _
b110 V
b1110 k
b1110 H
b1110 P
b1110 \
b1110 ?
b1110 M
b1110 !"
1>
1I
b1 }
b1 s
b1 r
b1 4
b1 A
b1000000001 J
b1000000001 O
b1000000001 j
1[
b1000000001 b
0x
0F
0^
1Z
b1000 `
b110110 n
b110001 @
b110001 l
b110001 z
b10000000000000000000001000000001 D
b10000000000000000000001000000001 a
b10000000000000000000001000000001 |
15
#485000
05
